[
    {
        "page": 1,
        "pages": 341,
        "per_page": 50,
        "total": 17024,
        "sourceid": "2",
        "lastupdated": "2024-10-24"
    },
    [
        {
            "indicator": {
                "id": "ER.MRN.PTMR.ZS",
                "value": "Marine protected areas (% of territorial waters)"
            },
            "country": {
                "id": "ZH",
                "value": "Africa Eastern and Southern"
            },
            "countryiso3code": "AFE",
            "date": "2023",
            "value": null,
            "unit": "",
            "obs_status": "",
            "decimal": 1
        },
        {
            "indicator": {
                "id": "ER.MRN.PTMR.ZS",
                "value": "Marine protected areas (% of territorial waters)"
            },
            "country": {
                "id": "ZH",
                "value": "Africa Eastern and Southern"
            },
            "countryiso3code": "AFE",
            "date": "2022",
            "value": null,
            "unit": "",
            "obs_status": "",
            "decimal": 1
        },
        {
            "indicator": {
                "id": "ER.MRN.PTMR.ZS",
                "value": "Marine protected areas (% of territorial waters)"
            },
            "country": {
                "id": "ZH",
                "value": "Africa Eastern and Southern"
            },
            "countryiso3code": "AFE",
            "date": "2021",
            "value": 5.04051231712238,
            "unit": "",
            "obs_status": "",
            "decimal": 1
        },
        {
            "indicator": {
                "id": "ER.MRN.PTMR.ZS",
                "value": "Marine protected areas (% of territorial waters)"
            },
            "country": {
                "id": "ZH",
                "value": "Africa Eastern and Southern"
            },
            "countryiso3code": "AFE",
            "date": "2020",
            "value": 5.03656369796849,
            "unit": "",
            "obs_status": "",
            "decimal": 1
        },
        {
            "indicator": {
                "id": "ER.MRN.PTMR.ZS",
                "value": "Marine protected areas (% of territorial waters)"
            },
            "country": {
                "id": "ZH",
                "value": "Africa Eastern and Southern"
            },
            "countryiso3code": "AFE",
            "date": "2019",
            "value": 5.23588024426614,
            "unit": "",
            "obs_status": "",
            "decimal": 1
        },
        {
            "indicator": {
                "id": "ER.MRN.PTMR.ZS",
                "value": "Marine protected areas (% of territorial waters)"
            },
            "country": {
                "id": "ZH",
                "value": "Africa Eastern and Southern"
            },
            "countryiso3code": "AFE",
            "date": "2018",
            "value": 4.94568706077219,
            "unit": "",
            "obs_status": "",
            "decimal": 1
        },
        {
            "indicator": {
                "id": "ER.MRN.PTMR.ZS",
                "value": "Marine protected areas (% of territorial waters)"
            },
            "country": {
                "id": "ZH",
                "value": "Africa Eastern and Southern"
            },
            "countryiso3code": "AFE",
            "date": "2017",
            "value": 4.94569027956894,
            "unit": "",
            "obs_status": "",
            "decimal": 1
        },
        {
            "indicator": {
                "id": "ER.MRN.PTMR.ZS",
                "value": "Marine protected areas (% of territorial waters)"
            },
            "country": {
                "id": "ZH",
                "value": "Africa Eastern and Southern"
            },
            "countryiso3code": "AFE",
            "date": "2016",
            "value": 4.93633827535982,
            "unit": "",
            "obs_status": "",
            "decimal": 1
        },
        {
            "indicator": {
                "id": "ER.MRN.PTMR.ZS",
                "value": "Marine protected areas (% of territorial waters)"
            },
            "country": {
                "id": "ZH",
                "value": "Africa Eastern and Southern"
            },
            "countryiso3code": "AFE",
            "date": "2015",
            "value": null,
            "unit": "",
            "obs_status": "",
            "decimal": 1
        },
        {
            "indicator": {
                "id": "ER.MRN.PTMR.ZS",
                "value": "Marine protected areas (% of territorial waters)"
            },
            "country": {
                "id": "ZH",
                "value": "Africa Eastern and Southern"
            },
            "countryiso3code": "AFE",
            "date": "2014",
            "value": null,
            "unit": "",
            "obs_status": "",
            "decimal": 1
        },
        {
            "indicator": {
                "id": "ER.MRN.PTMR.ZS",
                "value": "Marine protected areas (% of territorial waters)"
            },
            "country": {
                "id": "ZH",
                "value": "Africa Eastern and Southern"
            },
            "countryiso3code": "AFE",
            "date": "2013",
            "value": null,
            "unit": "",
            "obs_status": "",
            "decimal": 1
        },
        {
            "indicator": {
                "id": "ER.MRN.PTMR.ZS",
                "value": "Marine protected areas (% of territorial waters)"
            },
            "country": {
                "id": "ZH",
                "value": "Africa Eastern and Southern"
            },
            "countryiso3code": "AFE",
            "date": "2012",
            "value": null,
            "unit": "",
            "obs_status": "",
            "decimal": 1
        },
        {
            "indicator": {
                "id": "ER.MRN.PTMR.ZS",
                "value": "Marine protected areas (% of territorial waters)"
            },
            "country": {
                "id": "ZH",
                "value": "Africa Eastern and Southern"
            },
            "countryiso3code": "AFE",
            "date": "2011",
            "value": null,
            "unit": "",
            "obs_status": "",
            "decimal": 1
        },
        {
            "indicator": {
                "id": "ER.MRN.PTMR.ZS",
                "value": "Marine protected areas (% of territorial waters)"
            },
            "country": {
                "id": "ZH",
                "value": "Africa Eastern and Southern"
            },
            "countryiso3code": "AFE",
            "date": "2010",
            "value": null,
            "unit": "",
            "obs_status": "",
            "decimal": 1
        },
        {
            "indicator": {
                "id": "ER.MRN.PTMR.ZS",
                "value": "Marine protected areas (% of territorial waters)"
            },
            "country": {
                "id": "ZH",
                "value": "Africa Eastern and Southern"
            },
            "countryiso3code": "AFE",
            "date": "2009",
            "value": null,
            "unit": "",
            "obs_status": "",
            "decimal": 1
        },
        {
            "indicator": {
                "id": "ER.MRN.PTMR.ZS",
                "value": "Marine protected areas (% of territorial waters)"
            },
            "country": {
                "id": "ZH",
                "value": "Africa Eastern and Southern"
            },
            "countryiso3code": "AFE",
            "date": "2008",
            "value": null,
            "unit": "",
            "obs_status": "",
            "decimal": 1
        },
        {
            "indicator": {
                "id": "ER.MRN.PTMR.ZS",
                "value": "Marine protected areas (% of territorial waters)"
            },
            "country": {
                "id": "ZH",
                "value": "Africa Eastern and Southern"
            },
            "countryiso3code": "AFE",
            "date": "2007",
            "value": null,
            "unit": "",
            "obs_status": "",
            "decimal": 1
        },
        {
            "indicator": {
                "id": "ER.MRN.PTMR.ZS",
                "value": "Marine protected areas (% of territorial waters)"
            },
            "country": {
                "id": "ZH",
                "value": "Africa Eastern and Southern"
            },
            "countryiso3code": "AFE",
            "date": "2006",
            "value": null,
            "unit": "",
            "obs_status": "",
            "decimal": 1
        },
        {
            "indicator": {
                "id": "ER.MRN.PTMR.ZS",
                "value": "Marine protected areas (% of territorial waters)"
            },
            "country": {
                "id": "ZH",
                "value": "Africa Eastern and Southern"
            },
            "countryiso3code": "AFE",
            "date": "2005",
            "value": null,
            "unit": "",
            "obs_status": "",
            "decimal": 1
        },
        {
            "indicator": {
                "id": "ER.MRN.PTMR.ZS",
                "value": "Marine protected areas (% of territorial waters)"
            },
            "country": {
                "id": "ZH",
                "value": "Africa Eastern and Southern"
            },
            "countryiso3code": "AFE",
            "date": "2004",
            "value": null,
            "unit": "",
            "obs_status": "",
            "decimal": 1
        },
        {
            "indicator": {
                "id": "ER.MRN.PTMR.ZS",
                "value": "Marine protected areas (% of territorial waters)"
            },
            "country": {
                "id": "ZH",
                "value": "Africa Eastern and Southern"
            },
            "countryiso3code": "AFE",
            "date": "2003",
            "value": null,
            "unit": "",
            "obs_status": "",
            "decimal": 1
        },
        {
            "indicator": {
                "id": "ER.MRN.PTMR.ZS",
                "value": "Marine protected areas (% of territorial waters)"
            },
            "country": {
                "id": "ZH",
                "value": "Africa Eastern and Southern"
            },
            "countryiso3code": "AFE",
            "date": "2002",
            "value": null,
            "unit": "",
            "obs_status": "",
            "decimal": 1
        },
        {
            "indicator": {
                "id": "ER.MRN.PTMR.ZS",
                "value": "Marine protected areas (% of territorial waters)"
            },
            "country": {
                "id": "ZH",
                "value": "Africa Eastern and Southern"
            },
            "countryiso3code": "AFE",
            "date": "2001",
            "value": null,
            "unit": "",
            "obs_status": "",
            "decimal": 1
        },
        {
            "indicator": {
                "id": "ER.MRN.PTMR.ZS",
                "value": "Marine protected areas (% of territorial waters)"
            },
            "country": {
                "id": "ZH",
                "value": "Africa Eastern and Southern"
            },
            "countryiso3code": "AFE",
            "date": "2000",
            "value": null,
            "unit": "",
            "obs_status": "",
            "decimal": 1
        },
        {
            "indicator": {
                "id": "ER.MRN.PTMR.ZS",
                "value": "Marine protected areas (% of territorial waters)"
            },
            "country": {
                "id": "ZH",
                "value": "Africa Eastern and Southern"
            },
            "countryiso3code": "AFE",
            "date": "1999",
            "value": null,
            "unit": "",
            "obs_status": "",
            "decimal": 1
        },
        {
            "indicator": {
                "id": "ER.MRN.PTMR.ZS",
                "value": "Marine protected areas (% of territorial waters)"
            },
            "country": {
                "id": "ZH",
                "value": "Africa Eastern and Southern"
            },
            "countryiso3code": "AFE",
            "date": "1998",
            "value": null,
            "unit": "",
            "obs_status": "",
            "decimal": 1
        },
        {
            "indicator": {
                "id": "ER.MRN.PTMR.ZS",
                "value": "Marine protected areas (% of territorial waters)"
            },
            "country": {
                "id": "ZH",
                "value": "Africa Eastern and Southern"
            },
            "countryiso3code": "AFE",
            "date": "1997",
            "value": null,
            "unit": "",
            "obs_status": "",
            "decimal": 1
        },
        {
            "indicator": {
                "id": "ER.MRN.PTMR.ZS",
                "value": "Marine protected areas (% of territorial waters)"
            },
            "country": {
                "id": "ZH",
                "value": "Africa Eastern and Southern"
            },
            "countryiso3code": "AFE",
            "date": "1996",
            "value": null,
            "unit": "",
            "obs_status": "",
            "decimal": 1
        },
        {
            "indicator": {
                "id": "ER.MRN.PTMR.ZS",
                "value": "Marine protected areas (% of territorial waters)"
            },
            "country": {
                "id": "ZH",
                "value": "Africa Eastern and Southern"
            },
            "countryiso3code": "AFE",
            "date": "1995",
            "value": null,
            "unit": "",
            "obs_status": "",
            "decimal": 1
        },
        {
            "indicator": {
                "id": "ER.MRN.PTMR.ZS",
                "value": "Marine protected areas (% of territorial waters)"
            },
            "country": {
                "id": "ZH",
                "value": "Africa Eastern and Southern"
            },
            "countryiso3code": "AFE",
            "date": "1994",
            "value": null,
            "unit": "",
            "obs_status": "",
            "decimal": 1
        },
        {
            "indicator": {
                "id": "ER.MRN.PTMR.ZS",
                "value": "Marine protected areas (% of territorial waters)"
            },
            "country": {
                "id": "ZH",
                "value": "Africa Eastern and Southern"
            },
            "countryiso3code": "AFE",
            "date": "1993",
            "value": null,
            "unit": "",
            "obs_status": "",
            "decimal": 1
        },
        {
            "indicator": {
                "id": "ER.MRN.PTMR.ZS",
                "value": "Marine protected areas (% of territorial waters)"
            },
            "country": {
                "id": "ZH",
                "value": "Africa Eastern and Southern"
            },
            "countryiso3code": "AFE",
            "date": "1992",
            "value": null,
            "unit": "",
            "obs_status": "",
            "decimal": 1
        },
        {
            "indicator": {
                "id": "ER.MRN.PTMR.ZS",
                "value": "Marine protected areas (% of territorial waters)"
            },
            "country": {
                "id": "ZH",
                "value": "Africa Eastern and Southern"
            },
            "countryiso3code": "AFE",
            "date": "1991",
            "value": null,
            "unit": "",
            "obs_status": "",
            "decimal": 1
        },
        {
            "indicator": {
                "id": "ER.MRN.PTMR.ZS",
                "value": "Marine protected areas (% of territorial waters)"
            },
            "country": {
                "id": "ZH",
                "value": "Africa Eastern and Southern"
            },
            "countryiso3code": "AFE",
            "date": "1990",
            "value": null,
            "unit": "",
            "obs_status": "",
            "decimal": 1
        },
        {
            "indicator": {
                "id": "ER.MRN.PTMR.ZS",
                "value": "Marine protected areas (% of territorial waters)"
            },
            "country": {
                "id": "ZH",
                "value": "Africa Eastern and Southern"
            },
            "countryiso3code": "AFE",
            "date": "1989",
            "value": null,
            "unit": "",
            "obs_status": "",
            "decimal": 1
        },
        {
            "indicator": {
                "id": "ER.MRN.PTMR.ZS",
                "value": "Marine protected areas (% of territorial waters)"
            },
            "country": {
                "id": "ZH",
                "value": "Africa Eastern and Southern"
            },
            "countryiso3code": "AFE",
            "date": "1988",
            "value": null,
            "unit": "",
            "obs_status": "",
            "decimal": 1
        },
        {
            "indicator": {
                "id": "ER.MRN.PTMR.ZS",
                "value": "Marine protected areas (% of territorial waters)"
            },
            "country": {
                "id": "ZH",
                "value": "Africa Eastern and Southern"
            },
            "countryiso3code": "AFE",
            "date": "1987",
            "value": null,
            "unit": "",
            "obs_status": "",
            "decimal": 1
        },
        {
            "indicator": {
                "id": "ER.MRN.PTMR.ZS",
                "value": "Marine protected areas (% of territorial waters)"
            },
            "country": {
                "id": "ZH",
                "value": "Africa Eastern and Southern"
            },
            "countryiso3code": "AFE",
            "date": "1986",
            "value": null,
            "unit": "",
            "obs_status": "",
            "decimal": 1
        },
        {
            "indicator": {
                "id": "ER.MRN.PTMR.ZS",
                "value": "Marine protected areas (% of territorial waters)"
            },
            "country": {
                "id": "ZH",
                "value": "Africa Eastern and Southern"
            },
            "countryiso3code": "AFE",
            "date": "1985",
            "value": null,
            "unit": "",
            "obs_status": "",
            "decimal": 1
        },
        {
            "indicator": {
                "id": "ER.MRN.PTMR.ZS",
                "value": "Marine protected areas (% of territorial waters)"
            },
            "country": {
                "id": "ZH",
                "value": "Africa Eastern and Southern"
            },
            "countryiso3code": "AFE",
            "date": "1984",
            "value": null,
            "unit": "",
            "obs_status": "",
            "decimal": 1
        },
        {
            "indicator": {
                "id": "ER.MRN.PTMR.ZS",
                "value": "Marine protected areas (% of territorial waters)"
            },
            "country": {
                "id": "ZH",
                "value": "Africa Eastern and Southern"
            },
            "countryiso3code": "AFE",
            "date": "1983",
            "value": null,
            "unit": "",
            "obs_status": "",
            "decimal": 1
        },
        {
            "indicator": {
                "id": "ER.MRN.PTMR.ZS",
                "value": "Marine protected areas (% of territorial waters)"
            },
            "country": {
                "id": "ZH",
                "value": "Africa Eastern and Southern"
            },
            "countryiso3code": "AFE",
            "date": "1982",
            "value": null,
            "unit": "",
            "obs_status": "",
            "decimal": 1
        },
        {
            "indicator": {
                "id": "ER.MRN.PTMR.ZS",
                "value": "Marine protected areas (% of territorial waters)"
            },
            "country": {
                "id": "ZH",
                "value": "Africa Eastern and Southern"
            },
            "countryiso3code": "AFE",
            "date": "1981",
            "value": null,
            "unit": "",
            "obs_status": "",
            "decimal": 1
        },
        {
            "indicator": {
                "id": "ER.MRN.PTMR.ZS",
                "value": "Marine protected areas (% of territorial waters)"
            },
            "country": {
                "id": "ZH",
                "value": "Africa Eastern and Southern"
            },
            "countryiso3code": "AFE",
            "date": "1980",
            "value": null,
            "unit": "",
            "obs_status": "",
            "decimal": 1
        },
        {
            "indicator": {
                "id": "ER.MRN.PTMR.ZS",
                "value": "Marine protected areas (% of territorial waters)"
            },
            "country": {
                "id": "ZH",
                "value": "Africa Eastern and Southern"
            },
            "countryiso3code": "AFE",
            "date": "1979",
            "value": null,
            "unit": "",
            "obs_status": "",
            "decimal": 1
        },
        {
            "indicator": {
                "id": "ER.MRN.PTMR.ZS",
                "value": "Marine protected areas (% of territorial waters)"
            },
            "country": {
                "id": "ZH",
                "value": "Africa Eastern and Southern"
            },
            "countryiso3code": "AFE",
            "date": "1978",
            "value": null,
            "unit": "",
            "obs_status": "",
            "decimal": 1
        },
        {
            "indicator": {
                "id": "ER.MRN.PTMR.ZS",
                "value": "Marine protected areas (% of territorial waters)"
            },
            "country": {
                "id": "ZH",
                "value": "Africa Eastern and Southern"
            },
            "countryiso3code": "AFE",
            "date": "1977",
            "value": null,
            "unit": "",
            "obs_status": "",
            "decimal": 1
        },
        {
            "indicator": {
                "id": "ER.MRN.PTMR.ZS",
                "value":"Marine protected areas (% of territorial waters)"},
                    "country": {
                    "id": "ZH",
                    "value": "Africa Eastern and Southern"
                },
                "countryiso3code": "AFE",
                "date": "1976",
                "value": null,
                "unit": "",
                "obs_status": "",
                "decimal": 1
            },
            {
                "indicator": {
                    "id": "ER.MRN.PTMR.ZS",
                    "value": "Marine protected areas (% of territorial waters)"
                },
                "country": {
                    "id": "ZH",
                    "value": "Africa Eastern and Southern"
                },
                "countryiso3code": "AFE",
                "date": "1975",
                "value": null,
                "unit": "",
                "obs_status": "",
                "decimal": 1
            },
            {
                "indicator": {
                    "id": "ER.MRN.PTMR.ZS",
                    "value": "Marine protected areas (% of territorial waters)"
                },
                "country": {
                    "id": "ZH",
                    "value": "Africa Eastern and Southern"
                },
                "countryiso3code": "AFE",
                "date": "1974",
                "value": null,
                "unit": "",
                "obs_status": "",
                "decimal": 1
            }
        ]
    ]